digraph file {
    rankdir = LR;
    ranksep = 1.0;

    dpi = 300;
    fontsize = 24;

    node [shape = none, margin = 0];

    subgraph cluster_file {
        label = "struct File";
        labelloc = "t";

        file [label = <
            <table border="0" cellborder="1" cellspacing="0" cellpadding="4">
            <tr><td align="left" width="200" port="name">f_name</td></tr>
            <tr><td align="left" width="200">f_size</td></tr>
            <tr><td align="left" width="200">f_type</td></tr>
            <tr><td align="left" width="200" port="direct0">f_direct[0]</td></tr>
            <tr><td align="left" width="200" port="direct1">f_direct[1]</td></tr>
            <tr><td align="left" width="200" port="direct2">...</td></tr>
            <tr><td align="left" width="200" port="direct9">f_direct[9]</td></tr>
            <tr><td align="left" width="200" port="indirect">f_indirect</td></tr>
            <tr><td align="left" width="200">f_pad паддинг до 256 байт</td></tr>
            </table>
        >];
    }

    dummy [style = invis];

    file:name -> dummy [style = invis];
    dummy -> data:d0 [style = invis];

    subgraph cluster_indirect {
        label = "Блок индирекции";
        labelloc = "t";

        indirect [label = <
            <table border="0" cellborder="1" cellspacing="0" cellpadding="4">
            <tr><td align="left" width="200" port="id10">номер блока 10</td></tr>
            <tr><td align="left" width="200" port="id11">номер блока 11</td></tr>
            <tr><td align="left" width="200" port="id12">...</td></tr>
            <tr><td align="left" width="200" port="id1034">номер блока 1034</td></tr>
            </table>
        >];
    }

    subgraph cluster_data {
        label = "Блоки данных";
        labelloc = "t";

        data [label = <
            <table border="0" cellborder="1" cellspacing="0" cellpadding="4">
            <tr><td align="left" width="200" port="d0">блок 0</td></tr>
            <tr><td align="left" width="200" port="d1">блок 1</td></tr>
            <tr><td align="left" width="200" port="d2">...</td></tr>
            <tr><td align="left" width="200" port="d9">блок 9</td></tr>
            <tr><td align="left" width="200" port="d10">блок 10</td></tr>
            <tr><td align="left" width="200" port="d11">блок 11</td></tr>
            <tr><td align="left" width="200" port="d12">...</td></tr>
            <tr><td align="left" width="200" port="d1034">блок 1034</td></tr>
            </table>
        >];
    }

    edge [arrowhead = vee];

    file:direct0 -> data:d0 [weight = 3];
    file:direct1 -> data:d1;
    file:direct2 -> data:d2;
    file:direct9 -> data:d9;

    file:indirect -> indirect:id10:nw;

    indirect:id10 -> data:d10;
    indirect:id11 -> data:d11;
    indirect:id12 -> data:d12;
    indirect:id1034 -> data:d1034;
}
