digraph  {
    rankdir = LR;

    dpi = 300;
    fontsize = 24;

    node [shape = rect, width = 2.5];

    left_rpc [shape = none, width = 0, height = 0, label = ""];
    right_rpc [shape = none, width = 0, height = 0, label = ""];
    rpc_mechanism [shape = none, width = 0, height = 0, label = "Механизм удалённого вызова процедур (RPC)\n\n\n\n\n"];

    subgraph cluster_regular_env {
        label = "Процесс-клиент";
        labelloc = "t";

        r1 [label = "read()\nlib/fd.c"];
        r_rpc [shape = none, width = 0, height = 0, label = ""];
        r2 [label = "devfile_read()\nlib/file.c"];
        r3 [label = "fsipc()\nlib/file.c"];
        r4 [label = "ipc_send()\nlib/ipc.c"];
        r5 [shape = ellipse, label = "ядро\n\nsys_ipc_try_send()\nkern/syscall.c"];
    }

    subgraph cluster_fs_env {
        label = "Процесс ФС";
        labelloc = "t";

        fs1 [label = "file_read()\nfs/fs.c"];
        fs_rpc [shape = none, width = 0, height = 0, label = ""];
        fs2 [label = "serve_read()\nfs/serv.c"];
        fs3 [label = "serve()\nfs/serv.c"];
        fs4 [label = "ipc_recv()\nlib/ipc.c"];
        fs5 [shape = ellipse, label = "ядро\n\nsys_ipc_recv()\nkern/syscall.c"];
    }

    edge [arrowhead = vee];

    r1 -> r_rpc [dir = none, constraint = false];
    r_rpc -> r2 -> r3 -> r4 -> r5 [constraint = false];

    fs5 -> fs4 -> fs3 -> fs2 [constraint = false];
    fs2 -> fs_rpc [dir = none, constraint = false];
    fs_rpc -> fs1 [constraint = false];

    r5 -> fs5 [label = "Передача сообщений (базовый IPC)\n "];

    left_rpc -> r_rpc -> fs_rpc -> right_rpc [dir = none, style = dashed];

    r1 -> fs1 [style = invis];
    r2 -> rpc_mechanism -> fs2 [style = invis];
    r3 -> fs3 [style = invis];
    r4 -> fs4 [style = invis];
}
